!NODE
      1,           5.,           2.,           2.
      2,           5.,           1.,           2.
      3,           5.,           0.,           2.
      4,           5.,           2.,           1.
      5,           5.,           1.,           1.
      6,           5.,           0.,           1.
      7,           5.,           2.,           0.
      8,           5.,           1.,           0.
      9,           5.,           0.,           0.
     10,           4.,           2.,           2.
     11,           4.,           1.,           2.
     12,           4.,           0.,           2.
     13,           4.,           2.,           1.
     14,           4.,           1.,           1.
     15,           4.,           0.,           1.
     16,           4.,           2.,           0.
     17,           4.,           1.,           0.
     18,           4.,           0.,           0.
     19,           3.,           2.,           2.
     20,           3.,           1.,           2.
     21,           3.,           0.,           2.
     22,           3.,           2.,           1.
     23,           3.,           1.,           1.
     24,           3.,           0.,           1.
     25,           3.,           2.,           0.
     26,           3.,           1.,           0.
     27,           3.,           0.,           0.
     28,           2.,           2.,           2.
     29,           2.,           1.,           2.
     30,           2.,           0.,           2.
     31,           2.,           2.,           1.
     32,           2.,           1.,           1.
     33,           2.,           0.,           1.
     34,           2.,           2.,           0.
     35,           2.,           1.,           0.
     36,           2.,           0.,           0.
     37,           1.,           2.,           2.
     38,           1.,           1.,           2.
     39,           1.,           0.,           2.
     40,           1.,           2.,           1.
     41,           1.,           1.,           1.
     42,           1.,           0.,           1.
     43,           1.,           2.,           0.
     44,           1.,           1.,           0.
     45,           1.,           0.,           0.
     46,           0.,           2.,           2.
     47,           0.,           1.,           2.
     48,           0.,           0.,           2.
     49,           0.,           2.,           1.
     50,           0.,           1.,           1.
     51,           0.,           0.,           1.
     52,           0.,           2.,           0.
     53,           0.,           1.,           0.
     54,           0.,           0.,           0.
     55,           4.,           2.,          1.5
     56,           4.,          1.5,           1.
     57,           4.,           1.,          1.5
     58,           4.,          1.5,           2.
     59,           5.,          1.5,           2.
     60,           5.,           1.,          1.5
     61,           5.,          1.5,           1.
     62,           5.,           2.,          1.5
     63,          4.5,           1.,           2.
     64,          4.5,           2.,           2.
     65,          4.5,           1.,           1.
     66,          4.5,           2.,           1.
     67,           4.,          0.5,           1.
     68,           4.,           0.,          1.5
     69,           4.,          0.5,           2.
     70,           5.,          0.5,           2.
     71,           5.,           0.,          1.5
     72,           5.,          0.5,           1.
     73,          4.5,           0.,           2.
     74,          4.5,           0.,           1.
     75,           4.,           2.,          0.5
     76,           4.,          1.5,           0.
     77,           4.,           1.,          0.5
     78,           5.,           1.,          0.5
     79,           5.,          1.5,           0.
     80,           5.,           2.,          0.5
     81,          4.5,           1.,           0.
     82,          4.5,           2.,           0.
     83,           4.,          0.5,           0.
     84,           4.,           0.,          0.5
     85,           5.,           0.,          0.5
     86,           5.,          0.5,           0.
     87,          4.5,           0.,           0.
     88,           3.,           2.,          1.5
     89,           3.,          1.5,           1.
     90,           3.,           1.,          1.5
     91,           3.,          1.5,           2.
     92,          3.5,           1.,           2.
     93,          3.5,           2.,           2.
     94,          3.5,           1.,           1.
     95,          3.5,           2.,           1.
     96,           3.,          0.5,           1.
     97,           3.,           0.,          1.5
     98,           3.,          0.5,           2.
     99,          3.5,           0.,           2.
    100,          3.5,           0.,           1.
    101,           3.,           2.,          0.5
    102,           3.,          1.5,           0.
    103,           3.,           1.,          0.5
    104,          3.5,           1.,           0.
    105,          3.5,           2.,           0.
    106,           3.,          0.5,           0.
    107,           3.,           0.,          0.5
    108,          3.5,           0.,           0.
    109,           2.,           2.,          1.5
    110,           2.,          1.5,           1.
    111,           2.,           1.,          1.5
    112,           2.,          1.5,           2.
    113,          2.5,           1.,           2.
    114,          2.5,           2.,           2.
    115,          2.5,           1.,           1.
    116,          2.5,           2.,           1.
    117,           2.,          0.5,           1.
    118,           2.,           0.,          1.5
    119,           2.,          0.5,           2.
    120,          2.5,           0.,           2.
    121,          2.5,           0.,           1.
    122,           2.,           2.,          0.5
    123,           2.,          1.5,           0.
    124,           2.,           1.,          0.5
    125,          2.5,           1.,           0.
    126,          2.5,           2.,           0.
    127,           2.,          0.5,           0.
    128,           2.,           0.,          0.5
    129,          2.5,           0.,           0.
    130,           1.,           2.,          1.5
    131,           1.,          1.5,           1.
    132,           1.,           1.,          1.5
    133,           1.,          1.5,           2.
    134,          1.5,           1.,           2.
    135,          1.5,           2.,           2.
    136,          1.5,           1.,           1.
    137,          1.5,           2.,           1.
    138,           1.,          0.5,           1.
    139,           1.,           0.,          1.5
    140,           1.,          0.5,           2.
    141,          1.5,           0.,           2.
    142,          1.5,           0.,           1.
    143,           1.,           2.,          0.5
    144,           1.,          1.5,           0.
    145,           1.,           1.,          0.5
    146,          1.5,           1.,           0.
    147,          1.5,           2.,           0.
    148,           1.,          0.5,           0.
    149,           1.,           0.,          0.5
    150,          1.5,           0.,           0.
    151,           0.,           2.,          1.5
    152,           0.,          1.5,           1.
    153,           0.,           1.,          1.5
    154,           0.,          1.5,           2.
    155,          0.5,           1.,           2.
    156,          0.5,           2.,           2.
    157,          0.5,           1.,           1.
    158,          0.5,           2.,           1.
    159,           0.,          0.5,           1.
    160,           0.,           0.,          1.5
    161,           0.,          0.5,           2.
    162,          0.5,           0.,           2.
    163,          0.5,           0.,           1.
    164,           0.,           2.,          0.5
    165,           0.,          1.5,           0.
    166,           0.,           1.,          0.5
    167,          0.5,           1.,           0.
    168,          0.5,           2.,           0.
    169,           0.,          0.5,           0.
    170,           0.,           0.,          0.5
    171,          0.5,           0.,           0.
    172,          4.5,          1.8,          1.8
    173,          4.5,            1,          1.8
    174,          4.5,          0.2,          1.8
    175,          4.5,          1.8,            1
    176,          4.5,            1,            1
    177,          4.5,          0.2,            1
    178,          4.5,          1.8,          0.2
    179,          4.5,            1,          0.2
    180,          4.5,          0.2,          0.2
    181,          3.7,          1.8,          1.8
    182,          3.7,            1,          1.8
    183,          3.7,          0.2,          1.8
    184,          3.7,          1.8,            1
    185,          3.7,            1,            1
    186,          3.7,          0.2,            1
    187,          3.7,          1.8,          0.2
    188,          3.7,            1,          0.2
    189,          3.7,          0.2,          0.2
    190,    2.9000001,          1.8,          1.8
    191,    2.9000001,            1,          1.8
    192,    2.9000001,          0.2,          1.8
    193,    2.9000001,          1.8,            1
    194,    2.9000001,            1,            1
    195,    2.9000001,          0.2,            1
    196,    2.9000001,          1.8,          0.2
    197,    2.9000001,            1,          0.2
    198,    2.9000001,          0.2,          0.2
    199,          2.1,          1.8,          1.8
    200,          2.1,            1,          1.8
    201,          2.1,          0.2,          1.8
    202,          2.1,          1.8,            1
    203,          2.1,            1,            1
    204,          2.1,          0.2,            1
    205,          2.1,          1.8,          0.2
    206,          2.1,            1,          0.2
    207,          2.1,          0.2,          0.2
    208,          1.3,          1.8,          1.8
    209,          1.3,            1,          1.8
    210,          1.3,          0.2,          1.8
    211,          1.3,          1.8,            1
    212,          1.3,            1,            1
    213,          1.3,          0.2,            1
    214,          1.3,          1.8,          0.2
    215,          1.3,            1,          0.2
    216,          1.3,          0.2,          0.2
    217,          0.5,          1.8,          1.8
    218,          0.5,            1,          1.8
    219,          0.5,          0.2,          1.8
    220,          0.5,          1.8,            1
    221,          0.5,            1,            1
    222,          0.5,          0.2,            1
    223,          0.5,          1.8,          0.2
    224,          0.5,            1,          0.2
    225,          0.5,          0.2,          0.2
!ELEMENT, TYPE=362
      1,  10,  11,  14,  13,   1,   2,   5,   4,  58,  57,  56,  55,  59,  60,  61,  62,  64,  63,  65,  66
      2,  11,  12,  15,  14,   2,   3,   6,   5,  69,  68,  67,  57,  70,  71,  72,  60,  63,  73,  74,  65
      3,  13,  14,  17,  16,   4,   5,   8,   7,  56,  77,  76,  75,  61,  78,  79,  80,  66,  65,  81,  82
      4,  14,  15,  18,  17,   5,   6,   9,   8,  67,  84,  83,  77,  72,  85,  86,  78,  65,  74,  87,  81
      5,  19,  20,  23,  22,  10,  11,  14,  13,  91,  90,  89,  88,  58,  57,  56,  55,  93,  92,  94,  95
      6,  20,  21,  24,  23,  11,  12,  15,  14,  98,  97,  96,  90,  69,  68,  67,  57,  92,  99, 100,  94
      7,  22,  23,  26,  25,  13,  14,  17,  16,  89, 103, 102, 101,  56,  77,  76,  75,  95,  94, 104, 105
      8,  23,  24,  27,  26,  14,  15,  18,  17,  96, 107, 106, 103,  67,  84,  83,  77,  94, 100, 108, 104
      9,  28,  29,  32,  31,  19,  20,  23,  22, 112, 111, 110, 109,  91,  90,  89,  88, 114, 113, 115, 116
     10,  29,  30,  33,  32,  20,  21,  24,  23, 119, 118, 117, 111,  98,  97,  96,  90, 113, 120, 121, 115
     11,  31,  32,  35,  34,  22,  23,  26,  25, 110, 124, 123, 122,  89, 103, 102, 101, 116, 115, 125, 126
     12,  32,  33,  36,  35,  23,  24,  27,  26, 117, 128, 127, 124,  96, 107, 106, 103, 115, 121, 129, 125
     13,  37,  38,  41,  40,  28,  29,  32,  31, 133, 132, 131, 130, 112, 111, 110, 109, 135, 134, 136, 137
     14,  38,  39,  42,  41,  29,  30,  33,  32, 140, 139, 138, 132, 119, 118, 117, 111, 134, 141, 142, 136
     15,  40,  41,  44,  43,  31,  32,  35,  34, 131, 145, 144, 143, 110, 124, 123, 122, 137, 136, 146, 147
     16,  41,  42,  45,  44,  32,  33,  36,  35, 138, 149, 148, 145, 117, 128, 127, 124, 136, 142, 150, 146
     17,  46,  47,  50,  49,  37,  38,  41,  40, 154, 153, 152, 151, 133, 132, 131, 130, 156, 155, 157, 158
     18,  47,  48,  51,  50,  38,  39,  42,  41, 161, 160, 159, 153, 140, 139, 138, 132, 155, 162, 163, 157
     19,  49,  50,  53,  52,  40,  41,  44,  43, 152, 166, 165, 164, 131, 145, 144, 143, 158, 157, 167, 168
     20,  50,  51,  54,  53,  41,  42,  45,  44, 159, 170, 169, 166, 138, 149, 148, 145, 157, 163, 171, 167
!ELEMENT, TYPE=361
     21, 181, 182, 185, 184, 172, 173, 176, 175
     22, 182, 183, 186, 185, 173, 174, 177, 176
     23, 184, 185, 188, 187, 175, 176, 179, 178
     24, 185, 186, 189, 188, 176, 177, 180, 179
     25, 190, 191, 194, 193, 181, 182, 185, 184
     26, 191, 192, 195, 194, 182, 183, 186, 185
     27, 193, 194, 197, 196, 184, 185, 188, 187
     28, 194, 195, 198, 197, 185, 186, 189, 188
     29, 199, 200, 203, 202, 190, 191, 194, 193
     30, 200, 201, 204, 203, 191, 192, 195, 194
     31, 202, 203, 206, 205, 193, 194, 197, 196
     32, 203, 204, 207, 206, 194, 195, 198, 197
     33, 208, 209, 212, 211, 199, 200, 203, 202
     34, 209, 210, 213, 212, 200, 201, 204, 203
     35, 211, 212, 215, 214, 202, 203, 206, 205
     36, 212, 213, 216, 215, 203, 204, 207, 206
     37, 217, 218, 221, 220, 208, 209, 212, 211
     38, 218, 219, 222, 221, 209, 210, 213, 212
     39, 220, 221, 224, 223, 211, 212, 215, 214
     40, 221, 222, 225, 224, 212, 213, 216, 215
!NGROUP, NGRP=PART_1_1_SET_1, GENERATE
1,171,1
!NGROUP, NGRP=PART_2_1_INSIDE, GENERATE
172,225,1
!NGROUP, NGRP=PART_2_1_SET_2, GENERATE
172,225,1
!NGROUP, NGRP=SET_1
46,47,48,49,50,51,52,53,54,151,152,153,154,159,160,161
164,165,166,169,170
!EGROUP, EGRP=PART_1_1_SET_1, GENERATE
1,20,1
!EGROUP, EGRP=PART_2_1_INSIDE, GENERATE
21,40,1
!EGROUP, EGRP=PART_2_1_SET_2, GENERATE
21,40,1
!EGROUP, EGRP=SET_1, GENERATE
17,20,1
!EGROUP, EGRP=_SURF_1_S6, GENERATE
1,19,2
!SGROUP, SGRP=SURF_1
1,6,3,6,5,6,7,6,9,6,11,6,13,6,15,6,17,6,19,6,
!MATERIAL, NAME=MATERIAL_2, ITEM=1
!ITEM=1, SUBITEM=2
 1.00000000E+03, 3.00000000E-01
!MATERIAL, NAME=MATERIAL_1, ITEM=1
!ITEM=1, SUBITEM=2
 1.00000000E+02, 3.00000000E-01
!SECTION, TYPE=SOLID, EGRP=PART_1_1_SET_1, MATERIAL=MATERIAL_1
1.0
!SECTION, TYPE=SOLID, EGRP=PART_2_1_SET_2, MATERIAL=MATERIAL_2
1.0
!INSERT PAIR, NAME=IP1
PART_2_1_INSIDE, PART_1_1_SET_1
