!NODE
      1,           5.,           2.,           2.
      2,           5.,           1.,           2.
      3,           5.,           0.,           2.
      4,           5.,           2.,           1.
      5,           5.,           1.,           1.
      6,           5.,           0.,           1.
      7,           5.,           2.,           0.
      8,           5.,           1.,           0.
      9,           5.,           0.,           0.
     10,           4.,           2.,           2.
     11,           4.,           1.,           2.
     12,           4.,           0.,           2.
     13,           4.,           2.,           1.
     14,           4.,           1.,           1.
     15,           4.,           0.,           1.
     16,           4.,           2.,           0.
     17,           4.,           1.,           0.
     18,           4.,           0.,           0.
     19,           3.,           2.,           2.
     20,           3.,           1.,           2.
     21,           3.,           0.,           2.
     22,           3.,           2.,           1.
     23,           3.,           1.,           1.
     24,           3.,           0.,           1.
     25,           3.,           2.,           0.
     26,           3.,           1.,           0.
     27,           3.,           0.,           0.
     28,           2.,           2.,           2.
     29,           2.,           1.,           2.
     30,           2.,           0.,           2.
     31,           2.,           2.,           1.
     32,           2.,           1.,           1.
     33,           2.,           0.,           1.
     34,           2.,           2.,           0.
     35,           2.,           1.,           0.
     36,           2.,           0.,           0.
     37,           1.,           2.,           2.
     38,           1.,           1.,           2.
     39,           1.,           0.,           2.
     40,           1.,           2.,           1.
     41,           1.,           1.,           1.
     42,           1.,           0.,           1.
     43,           1.,           2.,           0.
     44,           1.,           1.,           0.
     45,           1.,           0.,           0.
     46,           0.,           2.,           2.
     47,           0.,           1.,           2.
     48,           0.,           0.,           2.
     49,           0.,           2.,           1.
     50,           0.,           1.,           1.
     51,           0.,           0.,           1.
     52,           0.,           2.,           0.
     53,           0.,           1.,           0.
     54,           0.,           0.,           0.
     55,          4.5,          1.8,          1.8
     56,          4.5,            1,          1.8
     57,          4.5,          0.2,          1.8
     58,          4.5,          1.8,            1
     59,          4.5,            1,            1
     60,          4.5,          0.2,            1
     61,          4.5,          1.8,          0.2
     62,          4.5,            1,          0.2
     63,          4.5,          0.2,          0.2
     64,          3.7,          1.8,          1.8
     65,          3.7,            1,          1.8
     66,          3.7,          0.2,          1.8
     67,          3.7,          1.8,            1
     68,          3.7,            1,            1
     69,          3.7,          0.2,            1
     70,          3.7,          1.8,          0.2
     71,          3.7,            1,          0.2
     72,          3.7,          0.2,          0.2
     73,    2.9000001,          1.8,          1.8
     74,    2.9000001,            1,          1.8
     75,    2.9000001,          0.2,          1.8
     76,    2.9000001,          1.8,            1
     77,    2.9000001,            1,            1
     78,    2.9000001,          0.2,            1
     79,    2.9000001,          1.8,          0.2
     80,    2.9000001,            1,          0.2
     81,    2.9000001,          0.2,          0.2
     82,          2.1,          1.8,          1.8
     83,          2.1,            1,          1.8
     84,          2.1,          0.2,          1.8
     85,          2.1,          1.8,            1
     86,          2.1,            1,            1
     87,          2.1,          0.2,            1
     88,          2.1,          1.8,          0.2
     89,          2.1,            1,          0.2
     90,          2.1,          0.2,          0.2
     91,          1.3,          1.8,          1.8
     92,          1.3,            1,          1.8
     93,          1.3,          0.2,          1.8
     94,          1.3,          1.8,            1
     95,          1.3,            1,            1
     96,          1.3,          0.2,            1
     97,          1.3,          1.8,          0.2
     98,          1.3,            1,          0.2
     99,          1.3,          0.2,          0.2
    100,          0.5,          1.8,          1.8
    101,          0.5,            1,          1.8
    102,          0.5,          0.2,          1.8
    103,          0.5,          1.8,            1
    104,          0.5,            1,            1
    105,          0.5,          0.2,            1
    106,          0.5,          1.8,          0.2
    107,          0.5,            1,          0.2
    108,          0.5,          0.2,          0.2
!ELEMENT, TYPE=361
      1,  10,  11,  14,  13,   1,   2,   5,   4
      2,  11,  12,  15,  14,   2,   3,   6,   5
      3,  13,  14,  17,  16,   4,   5,   8,   7
      4,  14,  15,  18,  17,   5,   6,   9,   8
      5,  19,  20,  23,  22,  10,  11,  14,  13
      6,  20,  21,  24,  23,  11,  12,  15,  14
      7,  22,  23,  26,  25,  13,  14,  17,  16
      8,  23,  24,  27,  26,  14,  15,  18,  17
      9,  28,  29,  32,  31,  19,  20,  23,  22
     10,  29,  30,  33,  32,  20,  21,  24,  23
     11,  31,  32,  35,  34,  22,  23,  26,  25
     12,  32,  33,  36,  35,  23,  24,  27,  26
     13,  37,  38,  41,  40,  28,  29,  32,  31
     14,  38,  39,  42,  41,  29,  30,  33,  32
     15,  40,  41,  44,  43,  31,  32,  35,  34
     16,  41,  42,  45,  44,  32,  33,  36,  35
     17,  46,  47,  50,  49,  37,  38,  41,  40
     18,  47,  48,  51,  50,  38,  39,  42,  41
     19,  49,  50,  53,  52,  40,  41,  44,  43
     20,  50,  51,  54,  53,  41,  42,  45,  44
!ELEMENT, TYPE=361
     21,  64,  65,  68,  67,  55,  56,  59,  58
     22,  65,  66,  69,  68,  56,  57,  60,  59
     23,  67,  68,  71,  70,  58,  59,  62,  61
     24,  68,  69,  72,  71,  59,  60,  63,  62
     25,  73,  74,  77,  76,  64,  65,  68,  67
     26,  74,  75,  78,  77,  65,  66,  69,  68
     27,  76,  77,  80,  79,  67,  68,  71,  70
     28,  77,  78,  81,  80,  68,  69,  72,  71
     29,  82,  83,  86,  85,  73,  74,  77,  76
     30,  83,  84,  87,  86,  74,  75,  78,  77
     31,  85,  86,  89,  88,  76,  77,  80,  79
     32,  86,  87,  90,  89,  77,  78,  81,  80
     33,  91,  92,  95,  94,  82,  83,  86,  85
     34,  92,  93,  96,  95,  83,  84,  87,  86
     35,  94,  95,  98,  97,  85,  86,  89,  88
     36,  95,  96,  99,  98,  86,  87,  90,  89
     37, 100, 101, 104, 103,  91,  92,  95,  94
     38, 101, 102, 105, 104,  92,  93,  96,  95
     39, 103, 104, 107, 106,  94,  95,  98,  97
     40, 104, 105, 108, 107,  95,  96,  99,  98
!NGROUP, NGRP=PART_1_1_SET_1, GENERATE
1,54,1
!NGROUP, NGRP=PART_2_1_INSIDE, GENERATE
55,108,1
!NGROUP, NGRP=PART_2_1_SET_2, GENERATE
55,108,1
!NGROUP, NGRP=SET_1, GENERATE
46,54,1
!EGROUP, EGRP=PART_1_1_SET_1, GENERATE
1,20,1
!EGROUP, EGRP=PART_2_1_INSIDE, GENERATE
21,40,1
!EGROUP, EGRP=PART_2_1_SET_2, GENERATE
21,40,1
!EGROUP, EGRP=SET_1, GENERATE
17,20,1
!EGROUP, EGRP=_SURF_1_S6, GENERATE
1,19,2
!SGROUP, SGRP=SURF_1
1,6,3,6,5,6,7,6,9,6,11,6,13,6,15,6,17,6,19,6,
!MATERIAL, NAME=MATERIAL_2, ITEM=1
!ITEM=1, SUBITEM=2
 1.00000000E+03, 3.00000000E-01
!MATERIAL, NAME=MATERIAL_1, ITEM=1
!ITEM=1, SUBITEM=2
 1.00000000E+02, 3.00000000E-01
!SECTION, TYPE=SOLID, EGRP=PART_1_1_SET_1, MATERIAL=MATERIAL_1
1.0
!SECTION, TYPE=SOLID, EGRP=PART_2_1_SET_2, MATERIAL=MATERIAL_2
1.0
!INSERT PAIR, NAME=IP1
PART_2_1_INSIDE, PART_1_1_SET_1
